{
    "installed": {
        "client_id": "718714334791-mhebgs8qbhro593ntekkufgccr7cin1g.apps.googleusercontent.com",
        "project_id": "congkenhsync",
        "auth_uri": "https://accounts.google.com/o/oauth2/auth",
        "token_uri": "https://oauth2.googleapis.com/token",
        "auth_provider_x509_cert_url": "https://www.googleapis.com/oauth2/v1/certs",
        "client_secret": "OE8ba1U6RGf6ZO_a2H64N2l5",
        "redirect_uris": [
            "urn:ietf:wg:oauth:2.0:oob",
            "http://localhost"
        ]
    }
}